Problem Set 5: Text Mining
…
Question 2

lda_fit <- LDA(chapters_dtm, k = 6, control = list(seed = 1234))

Question 3

lda_results_word <- tidy(lda_fit, matrix = "beta")
lda_results_word

## # A tibble: 135,768 x 3
##    topic term      beta
##    <int> <chr>    <dbl>
##  1     1 de    7.53e- 5
##  2     2 de    1.58e- 4
##  3     3 de    1.34e- 3
##  4     4 de    1.36e- 4
##  5     5 de    1.20e- 4
##  6     6 de    7.60e- 3
##  7     1 queen 8.00e- 4
##  8     2 queen 1.27e- 2
##  9     3 queen 5.50e- 4
## 10     4 queen 4.72e-12
## # ... with 135,758 more rows
…
Question 6

lda_results_topic <- tidy(lda_fit, matrix = "gamma")
lda_results_topic

## # A tibble: 1,716 x 3
##    document                                       topic     gamma
##    <chr>                                          <int>     <dbl>
##  1 Adventures of Huckleberry Finn_51                  1 0.0000118
##  2 Through the Looking-Glass_9                        1 0.0000138
##  3 The Adventures of Tom Sawyer_66                    1 0.0000185
##  4 Through the Looking-Glass_6                        1 0.0000193
##  5 A Connecticut Yankee in King Arthur's Court_9      1 0.0000256
##  6 Through the Looking-Glass_8                        1 0.0000155
##  7 Through the Looking-Glass_5                        1 0.0000203
##  8 The Adventures of Tom Sawyer_41                    1 0.0000143
##  9 A Connecticut Yankee in King Arthur's Court_43     1 0.0000145
## 10 Alice's Adventures in Wonderland_7                 1 0.0000265
## # ... with 1,706 more rows
…
Question 8

best_gamma <- lda_results_topic  %>% 
  group_by(title, chapter) %>% 
  slice_max(gamma, n = 1) %>% 
  ungroup()
best_gamma

## # A tibble: 286 x 4
##    title                                       chapter topic gamma
##    <chr>                                         <int> <int> <dbl>
##  1 A Connecticut Yankee in King Arthur's Court       1     1 0.429
##  2 A Connecticut Yankee in King Arthur's Court       2     1 0.425
##  3 A Connecticut Yankee in King Arthur's Court       3     3 0.402
##  4 A Connecticut Yankee in King Arthur's Court       4     3 0.701
##  5 A Connecticut Yankee in King Arthur's Court       5     1 0.975
##  6 A Connecticut Yankee in King Arthur's Court       6     1 0.750
##  7 A Connecticut Yankee in King Arthur's Court       7     1 0.563
##  8 A Connecticut Yankee in King Arthur's Court       8     1 1.00 
##  9 A Connecticut Yankee in King Arthur's Court       9     3 1.00 
## 10 A Connecticut Yankee in King Arthur's Court      10     3 1.00 
## # ... with 276 more rows

Question 9

book_topics <- best_gamma %>% 
  count(title, topic) %>%
  group_by(title) %>%
  slice_max(n, n = 1) %>%
  ungroup() %>%
  transmute(consensus = title, topic)

best_gamma %>%
  inner_join(book_topics, by = "topic") %>%
  filter(title != consensus)

## # A tibble: 55 x 5
##    title                        chapter topic gamma consensus                   
##    <chr>                          <int> <int> <dbl> <chr>                       
##  1 A Connecticut Yankee in Kin~      21     4 0.536 The Adventures of Tom Sawyer
##  2 A Connecticut Yankee in Kin~      33     4 0.697 The Adventures of Tom Sawyer
##  3 Adventures of Huckleberry F~       4     4 0.981 The Adventures of Tom Sawyer
##  4 Adventures of Huckleberry F~       5     4 0.984 The Adventures of Tom Sawyer
##  5 Adventures of Huckleberry F~       6     4 0.990 The Adventures of Tom Sawyer
##  6 Adventures of Huckleberry F~       9     4 0.981 The Adventures of Tom Sawyer
##  7 Adventures of Huckleberry F~      11     4 0.639 The Adventures of Tom Sawyer
##  8 Adventures of Huckleberry F~      24     5 0.671 The Innocents Abroad        
##  9 Adventures of Huckleberry F~      27     4 0.989 The Adventures of Tom Sawyer
## 10 Adventures of Huckleberry F~      29     1 0.824 A Connecticut Yankee in Kin~
## # ... with 45 more rows
…
